<?xml version="1.0" encoding="UTF-8" standalone="no"?>
<svg
   xmlns:dc="http://purl.org/dc/elements/1.1/"
   xmlns:cc="http://creativecommons.org/ns#"
   xmlns:rdf="http://www.w3.org/1999/02/22-rdf-syntax-ns#"
   xmlns:svg="http://www.w3.org/2000/svg"
   xmlns="http://www.w3.org/2000/svg"
   xmlns:sodipodi="http://sodipodi.sourceforge.net/DTD/sodipodi-0.dtd"
   xmlns:inkscape="http://www.inkscape.org/namespaces/inkscape"
   inkscape:version="1.0 (4035a4f, 2020-05-01)"
   sodipodi:docname="move-stop.svg"
   id="svg968"
   version="1.1"
   style="fill:gray;stroke:black"
   inkscape:hotspot_y="4"
   inkscape:hotspot_x="4"
   height="32"
   width="32">
  <metadata
     id="metadata972">
    <rdf:RDF>
      <cc:Work
         rdf:about="">
        <dc:format>image/svg+xml</dc:format>
        <dc:type
           rdf:resource="http://purl.org/dc/dcmitype/StillImage" />
        <dc:title />
      </cc:Work>
    </rdf:RDF>
  </metadata>
  <sodipodi:namedview
     inkscape:snap-global="false"
     inkscape:document-rotation="0"
     inkscape:current-layer="svg968"
     inkscape:window-maximized="1"
     inkscape:window-y="0"
     inkscape:window-x="0"
     inkscape:cy="16"
     inkscape:cx="16"
     inkscape:zoom="4.4967572"
     showgrid="true"
     id="namedview970"
     inkscape:window-height="933"
     inkscape:window-width="1500"
     inkscape:pageshadow="2"
     inkscape:pageopacity="0"
     guidetolerance="10"
     gridtolerance="10"
     objecttolerance="10"
     borderopacity="1"
     bordercolor="#666666"
     pagecolor="#ffffff">
    <inkscape:grid
       id="grid1537"
       type="xygrid" />
  </sodipodi:namedview>
  <defs
     id="defs957">
    <!-- Shadow -->
    <filter
       height="2"
       width="2.5"
       y="-0.5"
       x="-0.5"
       id="shadow">
      <feOffset
         id="feOffset950"
         dy="1"
         dx="1"
         in="SourceAlpha"
         result="offOut" />
      <feGaussianBlur
         id="feGaussianBlur952"
         stdDeviation="1"
         result="blurOut" />
      <feBlend
         id="feBlend954"
         mode="normal"
         in2="blurOut"
         in="SourceGraphic" />
    </filter>
    <filter
       height="2"
       width="2.5"
       y="-0.5"
       x="-0.5"
       id="shadow-0">
      <feOffset
         id="feOffset950-8"
         dy="1"
         dx="1"
         in="SourceAlpha"
         result="offOut" />
      <feGaussianBlur
         id="feGaussianBlur952-1"
         stdDeviation="1"
         result="blurOut" />
      <feBlend
         id="feBlend954-1"
         mode="normal"
         in2="blurOut"
         in="SourceGraphic" />
    </filter>
  </defs>
  <g
     style="filter:url(#shadow)"
     id="cursor">
    <!-- Arrow -->
    <path
       id="path959"
       style="stroke:#ffffff;stroke-width:3px"
       d="M 4.5,4.5 12,12 H 8 l 3,7 -1,0.5 -3,-7 -2.5,2.5 z" />
    <path
       id="path961"
       style="fill:#000000;stroke-width:1px"
       d="M 4.5,4.5 12,12 H 8 l 3,7 -1,0.5 -3,-7 -2.5,2.5 z" />
    <!-- Outline (cross) -->
    <!-- Cross -->
    <path
       sodipodi:nodetypes="cccccccc"
       id="path963"
       style="fill:#000000;stroke:#000000;stroke-width:3px;stroke-opacity:1"
       d="M 19.5,26.5 V 24.32914 L 16.631187,22.018976 22.5,17 28.331966,22.018976 25.465725,24.32914 25.5,26.5 Z" />
    <path
       sodipodi:nodetypes="cccccccccccccc"
       d="M 22.5,17.111328 19.496094,19.573074 19.53125,26.5 h 5.9375 l -0.01367,-6.926926 z m -4.996094,3.960938 -1.095703,0.921875 1.095703,0.927734 z m 10.013672,0.01367 V 22.9375 l 1.095703,-0.927734 z"
       style="fill:#ffffff;stroke:#ffffff;stroke-width:1px;stroke-opacity:1"
       id="path965" />
  </g>
  <g
     transform="translate(19.248044,-16.309248)"
     style="opacity:0.716157;fill:#ff0101;fill-opacity:1;stroke:#081cf7;stroke-opacity:1;filter:url(#shadow-0)"
     id="cursor-6">
    <!-- Arrow -->
    <!-- Outline (cross) -->
    <!-- Cross -->
  </g>
  <g
     transform="matrix(-1,0,0,1,59.366699,-19.101396)"
     id="g916" />
</svg>
